 <div style='left:100px;bottom:150px'></div>
 <div style='left:150px;bottom:200px'></div> 
 <div style='left:200px;bottom:250px'></div>
 <div style='left:250px;bottom:300px'></div>
 <div style='left:300px;bottom:350px'></div>
 <div style='left:700px;bottom:250px'></div>